Lab1/solution1/sim/report/verilog/matrixMultiplication.log
INFO: [COSIM-47] Using XSIM for RTL simulation.
INFO: [COSIM-14] Instrumenting C test bench ...
   Build using "C:/Xilinx/Vitis_HLS/2022.2/tps/win64/msys64/mingw64/bin/g++"
   Compiling apatb_matrixMultiplication.cpp
   Compiling (apcc) MATRIX_MULT.c_pre.c.tb.c
INFO: [HLS 200-10] Running 'C:/Xilinx/Vitis_HLS/2022.2/bin/unwrapped/win64.o/apcc.exe'
INFO: [HLS 200-10] For user 'PX' on host 'desktop-ap48fcv' (Windows NT_amd64 version 6.2) on Wed Nov 06 13:12:13 +0200 2024
INFO: [HLS 200-10] In directory 'C:/Users/PX/AppData/Roaming/Xilinx/Vitis/Lab1/solution1/sim/wrapc'
clang: warning: argument unused during compilation: '-fno-builtin-isinf'
clang: warning: argument unused during compilation: '-fno-builtin-isnan'
INFO: [APCC 202-3] Tmp directory is apcc_db
INFO: [APCC 202-1] APCC is done.
INFO: [HLS 200-112] Total CPU user time: 1 seconds. Total CPU system time: 0 seconds. Total elapsed time: 2.366 seconds; peak allocated memory: 7.062 MB.
   Compiling (apcc) tb_MATRIX_MULT.c_pre.c.tb.c
INFO: [HLS 200-10] Running 'C:/Xilinx/Vitis_HLS/2022.2/bin/unwrapped/win64.o/apcc.exe'
INFO: [HLS 200-10] For user 'PX' on host 'desktop-ap48fcv' (Windows NT_amd64 version 6.2) on Wed Nov 06 13:12:20 +0200 2024
INFO: [HLS 200-10] In directory 'C:/Users/PX/AppData/Roaming/Xilinx/Vitis/Lab1/solution1/sim/wrapc'
clang: warning: argument unused during compilation: '-fno-builtin-isinf'
clang: warning: argument unused during compilation: '-fno-builtin-isnan'
INFO: [APCC 202-3] Tmp directory is apcc_db
INFO: [APCC 202-1] APCC is done.
INFO: [HLS 200-112] Total CPU user time: 0 seconds. Total CPU system time: 0 seconds. Total elapsed time: 1.891 seconds; peak allocated memory: 7.191 MB.
   Compiling apatb_matrixMultiplication_ir.ll
   Generating cosim.tv.exe
INFO: [COSIM-302] Starting C TB testing ... 
INFO: [COSIM-333] Generating C post check test bench ...
INFO: [COSIM-12] Generating RTL test bench ...
INFO: [COSIM-1] *** C/RTL co-simulation file generation completed. ***
INFO: [COSIM-323] Starting verilog simulation. 
INFO: [COSIM-15] Starting XSIM ...
INFO: [COSIM-316] Starting C post checking ...
1063879 885719 957550 940530 933252 1205833 938696 1087276 1153711 1082600 970304 865647 947306 911779 831905 824142 1098092 1052817 1087238 1053966 878295 950063 965594 1040769 1020608 1095279 988507 977585 1023438 865355 1094638 1069176 1031140 1085599 954522 914854 1077869 1036657 1182353 966759 1040690 960267 1002739 984048 1017002 851145 957800 974466 915941 913111 1156317 937861 948915 1117010 1037643 989195 964565 858629 1012217 1160504 1062150 1011434 997071 915577 
1052826 922456 801353 843787 953304 1167153 955098 980854 1057174 1073502 900698 923602 908828 914281 838253 801579 971253 1003820 1012548 911737 867962 950035 1018347 863121 994593 985036 966550 819371 910114 893408 1008723 1097900 953798 1026044 875827 910703 1028729 1059821 1074761 912462 927046 929221 975688 956695 955629 863942 827020 864748 964859 896923 1021062 933610 948150 1140148 916288 935047 857675 821485 957495 1056125 1014293 895871 1013858 866242 
1258076 950296 1016832 939344 1019628 1267580 1117000 1085197 1162803 1162354 1077320 897166 978293 1021501 997581 904596 1057118 1077918 1223007 1106984 966987 1058944 1148676 1017243 1086394 1153054 1018189 1042899 1105022 991655 1140261 1147002 1038163 1147855 1064149 1014694 1174538 1119099 1272982 1038119 1104293 1117527 1059997 1097195 1076619 1026013 960563 941972 1058007 1069914 1121688 1070250 1070111 1252333 1143144 1042237 876109 973256 1147981 1262540 1115970 1020175 1086088 1034491 
1308390 1034939 1095122 1013650 1111619 1322025 1160220 1193596 1259582 1256896 1032532 992512 1105050 1210525 1008435 1017419 1131181 1140803 1205990 1158124 1060989 1119647 1210081 1219069 1159343 1238495 1043891 1195255 1183620 1026980 1093586 1237624 1265906 1288214 1108851 1050295 1268873 1224794 1295874 1077621 1240745 1087108 1197973 1029214 1176152 1035146 1082510 1091869 1138106 1079992 1244357 1171880 1160321 1347108 1239041 1040251 1039057 995274 1170809 1287807 1224305 1072450 1162376 1139557 
1303147 868557 1112159 1041289 1012613 1303224 1096548 1153437 1190788 1197786 1071350 945402 1020583 976950 918551 865432 1130660 1077145 1275195 1186036 999179 1097379 1040951 1016193 1145420 1129211 995316 1126004 1147363 1020994 1144193 1242217 1093092 1220506 1040160 975344 1226416 1126108 1279351 1116487 1144100 1092579 1169410 1038717 1055012 982019 985606 1076195 1002795 1048142 1316263 1106714 1034160 1283926 1189364 1128243 1033138 990101 1183160 1162559 1191117 1087593 1100789 1067231 
1146228 911081 944391 940264 1010561 1182567 1006770 1049795 1057749 1131152 993030 911801 1022666 898028 876353 931896 1062487 1052930 1058667 1047689 812223 1076966 989968 929555 1083394 1021582 983038 1062350 1050276 928805 1050015 1174369 1097746 1157147 932272 977181 1105543 1000718 1183178 979544 1033993 963102 1036606 1026497 1017657 894569 905994 1017839 933591 904396 1105853 943624 955646 1252809 982230 961976 915479 874885 992550 1084861 1169315 956950 1037339 980740 
1123308 892221 952027 823002 934241 1123063 910104 975495 1025773 1029845 942031 758615 877370 935824 829560 780904 908714 943708 1007025 1007616 837189 947265 950717 939791 1020368 990506 878956 937389 1006600 911850 1036519 1042896 983570 1051182 896231 904165 1095569 989603 1036922 917992 967558 917714 965917 825731 905193 835013 823986 889978 936894 889340 1003402 993543 958470 1185447 941120 867146 741315 747243 998383 1030121 1071828 901122 921503 961438 
1006217 858052 893497 854787 971968 1091211 956241 924516 1001343 1044150 923688 876732 961570 907728 844345 900431 928181 1006249 1031709 969498 838362 980599 978604 1006467 1055800 1020039 945830 996419 958660 819953 986520 1173177 1062457 1135092 928166 911045 1048504 1022309 1168909 906290 938106 928175 979506 950494 917211 857594 990615 952622 922598 897349 1147719 872378 937562 1079448 1080129 908908 890291 934297 962927 1115100 1020242 895761 999996 906628 
1126708 988493 922208 880335 949129 1207583 987849 1017664 1051524 1159518 941039 901840 973181 998538 880748 863313 1026121 992342 1064365 1011687 903848 975020 1059706 932854 1042600 1038929 1027206 1011122 1033404 866962 1066726 1141757 1049273 1142223 986681 965106 1079333 1087483 1173942 945931 1028976 990742 1038945 924597 1084960 922014 946540 929860 998944 903935 1146057 935907 967258 1207938 1064620 980173 858633 847582 1027959 1109181 1048409 998836 1056432 1053687 
1185531 952293 1008392 944296 1185927 1322358 980341 1187353 1137074 1167133 1132010 902336 1119324 1012558 1036486 982496 962592 1102524 1205230 1112172 938291 1028769 1142211 1148108 1114138 1075980 1087225 1130534 1184259 915176 1095915 1168690 1125332 1231109 999416 979025 1151062 1090330 1296840 1042695 1188118 1029294 1116852 1072632 1105925 943353 984617 994814 1058998 1043076 1253855 1032326 1136163 1317932 1183040 1008595 934771 969306 1125110 1228595 1204350 1035012 1062764 1088282 
1085665 837354 904168 881236 972392 1124412 1019392 949706 1052823 994808 999551 860121 896199 891294 886091 890514 871727 914830 1047254 988053 915117 878290 1004572 937543 1044076 969032 984714 911881 1029584 790609 1005839 1142897 1052936 1085747 896276 912097 1068720 991053 1115555 1067702 1022365 944722 1050455 869398 967466 958418 927126 933146 880924 872797 1084474 1046435 885777 1125055 1013219 963946 862618 830727 1077987 1062893 1050539 975296 999010 959954 
1137078 915086 943995 908099 893842 1164270 994896 1065042 1130588 1129525 999314 814200 952567 927681 904794 880922 985378 1030557 1142098 1043991 899759 943804 1006255 996403 983581 1119666 942979 969276 1000679 902796 1059784 1041677 1001589 1018669 982850 875851 1067611 988872 1151530 973795 968018 1011944 990738 919910 1044735 824661 890522 895454 977234 989141 1142775 1071048 958681 1108329 1067622 960245 839743 903400 1055778 1191591 1071700 1010768 1000908 996747 
1108585 977318 882461 955758 824978 1037451 956691 939760 1091315 1043570 922958 813081 897626 964627 912078 793263 981917 982556 1044146 1032254 847848 943642 919552 953636 945035 1070645 914080 967980 920406 934396 1062246 1051368 1011312 997237 949579 872702 1067152 1043849 1060967 905823 917894 1004901 938034 876823 1012236 819734 837516 904153 973809 973298 1074336 1043957 1036541 1131647 964076 930737 882437 824477 1045943 1046826 1025334 928522 1003351 869325 
1186004 917144 1125315 925760 1101330 1255674 1078903 1144001 1155802 1188031 1078564 897714 1062081 921439 956005 995453 1082412 1171160 1120317 1112462 1005178 1053333 1097359 1114942 1189328 1141923 987430 1075860 1099774 976210 1078889 1193951 1078731 1207928 1021993 991847 1176332 1076789 1253273 959215 1132358 988787 1146301 1069685 1105386 921308 993261 992651 1089151 1031143 1156327 1071758 1120115 1283545 1086784 985377 905746 970949 1079498 1209922 1089776 986480 1049462 1027056 
1282405 1052390 1061480 1057415 1032277 1337090 1069409 1241260 1181800 1256988 992948 917119 1121379 990280 876935 971159 1123221 1134633 1189221 1206268 999689 1087222 1156657 1208955 1122627 1151793 1055889 1149295 1150783 977377 1190385 1254193 1143181 1284626 1076859 934267 1222792 1189049 1306829 1036101 1068213 1017818 1141936 960144 1116393 955018 963459 1092302 966406 1105728 1335689 1102969 1116114 1322239 1165524 1100925 1011789 1024812 1142578 1200091 1195580 1096422 1013327 1174538 
972289 762643 880579 891086 878257 1092075 935730 949961 1011373 1030624 887303 771447 866118 757306 796234 832366 936247 905013 1041831 931140 718814 888974 954819 907329 943931 999784 886571 956208 1021437 841610 918065 1023455 969985 989028 917644 799013 1059151 913788 1081189 822559 920039 854457 951150 897444 954504 817453 840254 937501 858297 869445 986484 925842 968291 1128008 996678 930659 826584 830163 976443 1028034 949579 882564 879022 929035 
1144153 954584 964285 1011202 1017181 1182461 1050401 1051225 1113199 1195230 981044 928280 1044240 949841 940103 863418 960010 981852 1156122 1076678 988280 1041254 1074311 1013952 1111959 1053965 1060238 1064825 1044189 960428 1104054 1129749 1103680 1121064 993467 947118 1112703 1140635 1159101 1042093 1086658 981927 1047720 893400 1081676 880805 959195 923038 924608 980869 1200540 1140442 1003590 1232697 1050335 1007588 944818 929319 1040796 1120143 1125638 1002360 1071096 1067845 
988717 826181 903239 935446 872710 1131775 1043838 1068437 1086398 1128683 870350 904326 891506 881969 835092 852506 976311 990669 1044404 953520 853399 999972 937283 918562 957962 972071 785498 959302 910146 898639 979704 1006643 961085 1005519 880054 879948 1021344 979758 1016738 896805 948723 1013313 976115 925610 973577 892121 860182 904341 966088 914241 1072486 927602 949926 1119081 1047505 962397 833133 888673 919704 1048311 1015832 886036 983688 969139 
1201953 1018634 935280 936891 1014346 1205050 1019181 1048630 1141740 1152451 938749 923435 1004708 972274 825562 878734 990460 1033505 1063347 1125917 901019 948598 1066222 1071124 1076621 978177 983443 994155 1021776 823948 1083729 1121429 1074240 1147358 951561 906200 1102203 1072286 1199649 951667 1061214 920121 1078490 961677 1064778 908365 939307 978139 956837 1012480 1188871 1016188 1103616 1232042 1043723 1008853 867285 892654 1014350 1120662 1061664 1013392 1125507 1108304 
1126762 816193 960036 849111 1004777 1171039 977001 1063566 1043859 1125525 997390 820541 992886 938338 912321 932922 1015650 1043189 1062904 1012469 896607 924336 1073981 1083661 1056298 1027463 908285 989285 1034835 879604 924512 1052690 988352 1014413 969819 935614 1003562 1036804 1157926 974296 1027230 911097 987247 987986 1005013 857801 928430 851482 943543 1006415 1059167 981451 1018306 1182883 1073339 900292 850278 849980 1027160 1249769 1083984 919412 980905 896537 
1136382 914593 1026781 928509 966626 1133068 974545 1117995 1115495 1153712 892130 870929 970001 954309 839726 893008 1024757 1038332 1076408 1114909 878097 1051166 1045845 1069313 1021242 965918 940116 968330 1007099 891134 979763 1136049 1071791 1118307 953760 916442 1060617 1065310 1149402 955009 1103591 983002 1111102 1037186 1081039 868580 915678 953503 959045 1024316 1103632 939456 1076023 1194104 1049328 972538 899575 878172 966899 1139352 1085211 1018665 1036445 914519 
1268288 1052038 1074099 985698 1136136 1329041 1127929 1228243 1282043 1247883 1147541 985436 1044174 1079382 1047228 1027959 1066271 1139091 1135596 1129979 1040707 1117241 1229140 1222864 1250993 1181198 1171795 1078819 1151728 986105 1169579 1258054 1192229 1281089 1103444 1060721 1187117 1162297 1305697 1089883 1142202 1127967 1213514 1103122 1151764 987208 1003766 1105254 1127609 1093739 1326352 1076856 1166819 1386134 1275380 1051721 1004001 1000421 1119097 1238750 1177851 1063562 1131876 1079241 
1043703 938061 893920 900687 940352 1115059 914035 995842 1010941 1021733 896543 907959 926355 895880 876591 828679 886727 932859 1016776 1033332 815656 910352 1009797 933047 993755 954736 932795 980204 949814 784313 1002401 1092526 965600 1044826 855317 867675 1102866 925471 1117109 914145 953650 950025 995980 892103 934059 812874 952031 872934 905492 960226 1057739 977912 938030 1090208 990656 895106 863932 883768 1033836 1089052 946620 919633 942242 955633 
1118330 923444 965042 942751 969814 1175935 929459 1072761 1081848 1097156 946701 844708 952924 958170 894944 912075 1021585 1006625 1121218 1078437 908350 966571 1002390 973829 1026470 1008401 895391 1011037 1005242 860078 1103853 1160154 963695 1088579 927759 950583 1094939 1041358 1109262 974762 969697 1022212 946859 930641 1075998 948605 917883 930838 934898 1023706 1140524 996957 998571 1130030 1020293 980653 845618 931189 1060632 1121504 1016583 1016831 959246 985457 
1150311 762349 952725 920745 980831 1160759 920060 972509 1037591 1048444 870218 874197 926827 911862 920665 816950 965011 901322 1077012 945712 866951 981379 1016925 928023 1015996 884330 1031410 1036516 964915 904029 1078068 1117018 973840 1077092 911857 912864 1037415 1078255 1150495 928905 1022234 986218 943057 886455 982377 837629 868756 949989 841869 950859 1140851 946487 916038 1153015 1012560 922896 799029 832869 1011503 1126108 1092204 988391 971493 969088 
1106754 934987 920133 918261 1033254 1288563 988042 1099887 1164633 1217746 958838 948083 1032208 989462 840593 822476 1084871 1057458 1206268 1126049 877245 1076777 1026343 1004864 1071214 1074649 947542 1002505 1079521 921653 1088599 1141459 1099285 1058452 997130 969562 1135296 1022491 1196663 891469 1114222 1066940 1051812 1030253 1043517 838972 883800 1025662 1097166 964352 1179925 1019880 1100797 1242688 1107296 1004319 949179 997084 1004484 1153086 1077143 1029219 1066951 1005449 
1016173 829728 956238 841712 934030 1063694 891836 930012 1029982 954589 836696 806973 915229 874355 778254 757427 954980 917057 934490 955337 862521 851821 879022 1045139 956363 987233 832558 847166 900710 774329 963906 1013507 906269 1025036 850256 779600 956454 935504 1015491 918287 879455 796184 889125 881080 898441 805655 876829 918640 861755 858960 1093667 875421 830272 1090594 941759 884751 805345 823373 914951 1028422 985182 877459 897014 824613 
1229402 1017444 1037387 1009322 996142 1279873 1025391 1088697 1131540 1096669 1037935 905067 1060452 937178 828219 945658 1024090 1119062 1099312 1086139 1011398 1021208 1081606 1066778 1143265 1087238 1069377 1056442 1112820 981160 1181442 1160735 1123818 1162456 1005338 1028604 1194202 1081620 1285097 983846 1051091 1020066 1083943 953146 1033712 857526 960698 991786 1004226 1002342 1219524 1114959 1069304 1275550 1106453 980814 881893 1019513 1130175 1272841 1258235 1046691 1084862 1123817 
966119 793184 920864 902158 928877 1105277 915094 885061 946753 1045934 931102 825743 904892 765830 815324 789981 906435 901591 1054675 1017977 812252 924979 863559 944091 1060622 913351 835796 941982 978880 809810 984029 1061375 856536 983914 823531 829972 1070107 970505 1044192 852181 969584 886435 956594 874238 872679 795493 941445 878011 843608 882672 1079193 920663 908072 1088378 990864 850791 804860 919275 970042 1021950 954517 856393 879488 917739 
1105144 900832 987967 924108 1149280 1194616 1001890 1080285 1044885 1013521 976613 860321 1037639 909852 904056 961115 914327 989004 1066205 1035018 889616 976784 1072404 1095334 1144690 1026710 1005131 1031516 1096429 871191 1037944 1184287 1012902 1193402 962447 922951 1081922 1001047 1208517 950453 1034866 896574 1102953 969490 1027587 933432 933692 915195 951532 939155 1109672 997996 1062472 1280755 1076826 947997 882342 922350 1072724 1070125 1064154 928970 962476 959799 
1161501 964014 1008457 1034043 1061474 1313696 1009992 1178755 1151942 1197477 1003653 1010458 1062592 1023951 1006730 859614 1041491 1017188 1222260 1198017 913596 1056525 1075078 1092539 1039228 1141291 985134 1068456 1156429 969964 1109878 1154670 1007495 1120001 966456 957364 1220117 1048818 1151535 1064968 1147417 1104222 1151641 999195 1140298 884246 945472 1096087 1025874 1003315 1169547 1098415 1069806 1259859 1159820 1033329 956795 1008103 1144937 1178303 1150631 1013734 1051562 1043607 
1240312 1040774 1014809 1048432 1071509 1305554 1080386 1141787 1199991 1188568 1023679 952469 1080605 1038024 932183 949265 1082582 1125682 1168547 1098534 973121 1066103 1113768 1062719 1097263 1162299 1015644 1151379 1115686 1019217 1210066 1262272 1165705 1234734 1102300 1049677 1173168 1154896 1277632 1076292 1064043 1083809 1032384 1012950 1177228 1064947 1061654 1023406 1087879 1031797 1228669 1102483 1114963 1313049 1135139 1045376 960509 965385 1152170 1271525 1172436 1034949 1108571 1099277 
1317833 1106174 1138032 1172994 1171713 1446335 1252434 1216205 1316438 1327539 1160210 1090924 1115308 1106357 1102179 1015025 1208123 1218614 1261550 1285245 1105881 1208527 1243574 1311111 1294490 1254080 1148990 1127271 1291074 1107374 1350578 1411670 1261840 1329748 1140711 1174402 1362814 1300074 1341240 1168290 1260482 1261117 1174099 1169302 1210851 1165550 1208911 1195759 1216504 1169991 1446790 1152942 1249782 1486749 1391810 1164247 1127171 1093342 1314600 1361001 1314959 1180252 1246015 1206856 
1079094 886901 989942 859404 943103 1258366 971216 1032818 1106818 1132303 1012157 798356 944105 843204 829860 890160 1054295 1054949 1079901 1117795 840696 946559 974264 1085497 1022664 1030039 960698 887241 1106253 822061 1033751 1113414 964778 1090924 906577 936000 1126684 988300 1154442 992256 1079491 947592 1055344 1013489 998224 895313 919343 993305 994653 983507 1120274 914985 961429 1197503 1056171 940886 935138 915383 1033309 1115098 1067279 979584 1006944 915366 
1285756 1062726 1106863 1123780 1127421 1344333 1167214 1174488 1240249 1205862 1053667 1068738 1105795 1130652 1076016 1045159 1127739 1173470 1219348 1136722 1033232 1158584 1207414 1148075 1158157 1187738 1179978 1180348 1157744 1056074 1185102 1300992 1170013 1258885 1088954 997390 1294839 1255547 1294232 1060825 1123672 1196943 1240383 1051777 1159517 971716 1016039 1098899 1130914 1020193 1282271 1140079 1134989 1349279 1197239 1106512 1035849 1040306 1207078 1266976 1216740 1036126 1109807 1118499 
1129539 878497 939626 925334 1037944 1150548 1074749 1061842 1153937 1035259 936844 872106 1007478 997614 945191 904646 953597 1018064 1149503 998080 1001709 945628 1079856 1071696 1031520 1099234 944797 1034542 1074045 962220 1024412 1085467 1080251 1114310 972084 882305 1105272 1059738 1163255 982854 1043658 999848 1037162 899260 1039074 874735 870630 962614 1005994 913624 1154235 1037691 1055709 1208321 1100989 963068 941291 913365 1070843 1196406 1135658 1015178 1029336 1026031 
930314 669058 784601 774141 913088 1063915 788642 817532 921014 825928 859764 757072 853999 796320 740404 768623 804796 832573 894243 889686 777576 770847 865488 925784 913224 877323 873218 777595 936157 684291 904534 976099 845771 933029 769408 780138 952744 851477 1002976 832906 933776 835583 851632 802784 870151 779173 832261 846156 828726 730706 984816 826066 847631 956370 930471 783294 799952 813341 964660 976441 939095 770459 867034 798139 
1270176 912888 1016695 935906 1085499 1263796 1048314 1095749 1137033 1104123 994203 871367 1040175 956975 903710 995593 997442 1021931 1094974 1129250 891803 1059563 1115807 1066538 1120354 1004805 1074586 1060850 1088565 916652 1071116 1169015 1114984 1172176 956713 921970 1180201 1087465 1214153 941745 1145154 1025823 1091308 932312 1001805 894594 959478 1054937 985202 1043805 1243453 1000648 1028942 1290771 1087178 961095 892006 884043 1033207 1139919 1137069 1005512 1017104 1054899 
1079026 962111 918560 870156 945360 1123505 970665 965984 1110421 1035939 893899 777821 971013 949996 879459 797072 937185 977521 1006093 1006674 895036 956532 952303 1082490 1073137 1048760 982288 899789 964758 872812 1121976 1044874 1032672 1093619 921567 902196 1047438 974969 1130437 913899 972422 863745 999721 920682 1053408 906048 840220 905135 991608 894114 1026654 1023938 1018295 1258302 966296 867757 834806 837085 1018078 1122774 1095795 921371 977145 935335 
1141222 908708 1025028 889470 958321 1162409 967435 961023 1109738 1126979 1062335 796072 961054 927244 911118 839945 961062 1005342 1092901 1059310 908546 969753 973034 1009656 1141054 1055401 1049736 967410 1021933 897329 1101096 1161063 1077914 1147453 976135 959718 1091326 1095170 1180416 969703 1018616 1000274 991271 905506 1004436 913582 947040 997165 1007087 940357 1159857 945872 1032687 1322477 1088311 962422 892392 860542 1029238 1149467 1139686 975840 1037685 969639 
1110001 866435 1002696 997410 1011113 1228475 1081432 1009375 1139261 1213196 898722 975917 1069245 850167 904674 865060 1072155 1056491 1158498 1076407 923566 1060800 1025655 999499 1014897 1018433 959512 1003543 1025655 986935 1025778 1152774 1068862 1117979 954392 844141 1196125 1112586 1117006 916154 1065468 1002051 1033748 994422 1090606 881286 893632 954597 997802 975380 1148112 1022462 1025564 1235748 990774 1013227 950857 960931 989514 1132207 1100370 965117 1048694 1005782 
1070544 783837 898876 810938 834374 1049616 820811 897083 969992 972407 915164 632966 791077 764524 725959 738193 878750 891543 980784 939383 828374 845046 929534 898407 954631 890314 826410 864646 884365 805071 886131 944253 968046 949609 892091 797890 974158 857291 1063134 779944 929185 814559 930105 842058 824757 786051 812829 866472 826544 884241 1002955 895251 901164 1049709 959446 868647 781563 745004 899243 1058699 990498 897930 857861 837094 
1159131 1005394 989643 930989 1041151 1303059 1161177 1050274 1129947 1152602 991146 952695 1062796 1009349 920435 939439 1094228 1107323 1125749 1049304 927502 989503 1083066 1013402 1089439 1098272 992592 1113439 1186455 971552 1066513 1094789 1051420 1151760 977971 994812 1212243 1118023 1176380 986365 1101508 1060530 1152787 1026179 1157238 981801 961792 961399 1094060 929380 1143635 1057292 1079746 1287949 1075141 1021525 908260 923837 1151506 1142775 1162934 940690 1063849 1120319 
1064552 861118 917454 880097 1012935 1107016 896714 952947 1012279 1014391 891744 868348 862379 834808 871313 752956 939357 919593 986911 1047375 873635 917610 1020258 940159 1014444 998877 921643 882167 938123 909754 986466 1077369 928015 1081795 915894 857484 1071002 895177 1079945 870021 941632 945905 982294 887933 893195 761797 786481 880003 864755 878766 1007049 966740 895779 1099830 976524 948886 848342 886827 922980 985344 988589 926082 883639 833673 
1223990 939494 1037502 969734 1087450 1238427 1119422 1157227 1214778 1192960 1001018 951443 1013049 1035555 942234 906595 1136057 1081875 1154508 1111797 979350 1116046 1045543 1044140 1106628 1104528 985303 1072451 1139984 962153 1070284 1213717 1132997 1171010 1049185 1004714 1149569 1103839 1179587 1077615 1137699 1050925 1091456 989917 1102971 961112 914526 1022560 1075003 915213 1198403 1001089 1052488 1305063 1045705 1058148 928230 922735 1025196 1257695 1150450 1016426 1039524 1018689 
1156640 1026406 908112 934404 1078837 1263736 1072593 1124699 1178797 1169409 1012580 966503 1041244 1044791 994151 906265 1082389 1094676 1162818 1142983 921268 950555 1082100 1064903 1085980 1051076 961103 1033573 1135096 927317 1168978 1156655 996860 1161963 894775 945131 1167784 1117063 1164054 1061311 1077901 1022224 1081696 1084610 1130855 966220 979040 997413 980576 926887 1143238 1054845 1024809 1226816 1026745 1036338 929648 874262 1152157 1090255 1148060 1032023 1062824 1072220 
1212000 928231 1071164 958927 1107967 1382214 1167260 1172176 1268785 1287377 1083593 1130664 1055180 1069553 907325 1104802 1148236 1183712 1194454 1118967 1016274 1042820 1196818 1252981 1248093 1108416 1033459 1133189 1157306 987006 1210717 1170723 1160735 1202302 1062077 1094351 1245676 1238799 1287842 1050673 1174305 1092659 1097680 1020556 1161764 1026806 1086166 1175909 1072206 1038935 1305562 1076831 1187227 1361343 1224263 1064021 1017632 995455 1149933 1320871 1220908 1093092 1234461 1149366 
984208 849098 879664 885791 961114 1113824 923579 1011292 1080612 938916 959415 884106 925864 840304 968056 813031 883853 1035616 942837 945566 930794 932840 1039222 956070 951406 992241 872917 957924 987743 947022 949760 1014418 969721 1028149 914884 812258 1064037 986988 1029366 861210 991575 993077 991435 924081 1035074 852337 825873 860535 927176 847649 1042919 947114 1019668 1049481 1035312 860737 819267 799552 993287 979593 965230 865892 895442 868282 
1170723 904922 962359 1000837 947706 1229567 1011867 987407 1134689 1053108 1024834 869036 944152 938278 865227 858776 1000408 969202 1179008 1001893 901590 984394 944502 957209 1084053 1073331 1041497 1038011 1048302 904917 1117111 1153853 1049033 1094678 966375 944291 1183369 1040526 1202315 1004503 990363 925375 1068975 947563 1043222 902622 926979 953978 919092 982215 1240970 1082474 993329 1141570 987741 996993 880370 935099 1119703 1137872 1067583 982280 976623 990345 
1046596 903877 884224 821533 854701 1143286 865788 1051230 1090732 1065435 925937 820174 914379 881891 801387 870459 954865 1006993 1025350 1015833 908100 910821 979696 1001730 1013669 979029 874214 943178 1033320 810405 1006799 991750 935093 978129 874985 922533 1017530 963221 1070740 940195 944935 883113 1013140 861083 944799 715467 840961 910190 835398 922570 1120475 995760 946127 1079705 984272 866142 839249 821546 987997 1016682 1014368 1000654 980089 938327 
1267248 992482 1094959 1022286 1066120 1317620 1095895 1106234 1231741 1307378 1158488 991059 1076926 1050748 1056223 923227 1069375 1108450 1230256 1188479 1024896 1180671 1125744 1185535 1202632 1226334 1060765 1135391 1126917 1017325 1250846 1227158 1159736 1138250 1069785 1067854 1220549 1132915 1237224 1121436 1195364 1123924 1139524 1048706 1109224 1011236 1043374 1079692 1096811 1078285 1298760 1167588 1123031 1283917 1191295 1076215 976922 971545 1205137 1285658 1178203 1035420 1155411 1113571 
1066025 841588 885334 965795 890994 1094335 1041731 1027535 982455 1103197 862369 926690 940181 877166 821080 881146 911291 941703 1096509 966215 838540 1026376 1000758 876502 945291 990849 882395 1079258 950065 938003 980994 1064861 1059333 1061080 901107 885926 1065399 1037592 1107961 902942 963625 1005754 975719 892964 1015630 842664 915374 917658 895419 905968 1091695 1013785 984370 1109457 979141 1000126 906710 914853 968833 1041226 1060868 883025 1027600 1022322 
1085482 952175 888702 905448 930386 1023334 937602 1010641 1082202 988710 890895 799320 841203 953757 813304 740762 946238 950270 962258 1030997 832939 983090 921569 901934 995756 996739 901620 982780 991800 843380 1049116 1056412 986646 1035265 909272 910857 941352 1025894 1001669 955214 994538 1051564 1015936 950476 1014002 916580 886431 917012 993586 886561 1116628 919667 1026641 1160271 993804 996270 823017 750090 963524 1017635 1004484 913682 1014447 929527 
1273711 1064006 1069648 978613 1026894 1374547 1047449 1216334 1239816 1238514 1127547 882459 1012074 1103854 1022216 945463 1125440 1155504 1199773 1191455 1048020 1069055 1167463 1239955 1172520 1156946 1082311 1056281 1188033 937473 1186382 1165344 1164466 1228693 1074572 972498 1214873 1208649 1309569 1082397 1153150 1079160 1205502 1108477 1199015 1042616 1089083 1121462 1074058 1006588 1274163 1088918 1147645 1311131 1217614 1039088 1038664 876826 1175874 1249895 1180617 1100871 1075877 1081835 
1229099 979104 1020008 948447 1060101 1232614 999722 1081520 1074192 1110160 978142 842213 1074703 957109 919550 920702 983764 994655 1132042 1066563 931955 968895 1106802 961513 1084409 1078559 1060317 1024651 1022499 898108 1018631 1119194 997490 1105318 915144 870353 1122329 1004752 1160200 985084 979703 907988 1110466 917462 1030180 832956 928402 924601 933423 935629 1099367 1120221 997970 1163498 950984 1037400 839344 861741 1091272 1174298 1064316 922461 957241 1016090 
1118934 854270 1030013 966371 984113 1252405 980993 1021323 1095715 1059615 977415 918178 990705 922646 836604 852265 1058668 1025086 1091075 1062472 846090 1004493 973873 948405 1082955 957515 1013819 1056221 1048403 899239 1112795 1065265 1015658 1099006 933845 894878 1146058 1062348 1151551 963551 1067005 1044351 1028717 968015 1017898 867536 925627 974849 1043726 851456 1123950 995492 959499 1259188 1014491 1004299 931278 884070 1060134 1065890 1108438 920345 1007131 994372 
1140200 1009174 1068268 1039196 963672 1266275 1051131 1065531 1188204 1224025 1013750 920124 1037130 902246 910381 810684 1081957 1079971 1145159 1155638 928989 1104832 1057667 1100282 1117750 1167431 968518 999283 1121059 1001158 1153238 1221616 1108613 1169820 1092690 951040 1253153 1098133 1185431 988460 1063461 973592 1105160 1033953 1114743 943686 964651 1047173 985392 1022540 1192827 1087487 1102067 1278713 1131748 1027872 952187 973848 1108671 1144329 1060074 977667 1004824 1051494 
1223408 981877 1072304 978295 1024308 1305025 1126693 1163744 1222153 1207797 1070621 1022977 1126693 1102932 1030375 991667 1108544 1184005 1207087 1139316 1046694 1039440 1158211 1062930 1103818 1193795 911907 1101370 1123321 1012982 1093519 1134513 1091624 1185023 1024818 1046046 1302658 1125125 1232711 1030850 1154444 1080636 1071141 1006993 1072369 935209 980234 998515 1048955 1075969 1127433 1118794 1056545 1296816 1114278 1037831 924094 968770 1151517 1277454 1190926 1075652 1069472 1114229 
1305641 1031030 1076517 945879 1113546 1272966 1070562 1161319 1252154 1188311 1032428 925884 1067121 1093558 986823 906536 1112704 1103051 1221517 1140433 999416 1064243 1166624 1020294 1150456 1130692 1048634 1095995 1097432 997267 1117257 1221204 1191591 1236319 1066423 1019576 1236352 1102384 1295061 1002127 1137517 1070586 1147552 1123938 1142718 1022751 950264 1020081 1108139 1083555 1137140 1115215 1131465 1337889 1210285 1111486 911064 936325 1150820 1291990 1234980 1135009 1097616 1081679 
1171890 961079 1032198 1022492 1075998 1311934 1152141 1167982 1272847 1185514 964473 1011535 1129236 937606 918759 951849 1095163 1095085 1183289 1082985 1012926 1112387 1064138 1163668 1126047 1038535 979428 969671 1111483 958040 1088879 1085414 1089707 1098750 916710 847250 1164491 1138448 1198894 1055229 1082835 941737 1103657 1046749 1169552 957290 908284 1050942 1009046 993743 1239922 1112065 1163125 1368723 1025555 1041899 1011281 926625 1058605 1184992 1209426 1039132 1134616 1054404 
